{
  "Actor": {
    "types": [
      "character"
    ],
    "templates": {
      "base": {
        "health": {
          "value": 10,
          "min": 0,
          "max": 10
        },
        "power": {
          "value": 5,
          "min": 0,
          "max": 5
        }
      }
    },
    "character": {
      "templates": [
        "base"
      ],
      "biography": "",
      "attributes": {
        "level": {
          "value": 1
        }
      },
      "abilities": {
        "aus": {
          "name": "Splittermond.Abilities.Aus.Name",
          "shortcut": "Splittermond.Abilities.Aus.Shortcut",
          "start": 1,
          "value": 1,
          "mod": 0
        },
        "bew": {
          "name": "Splittermond.Abilities.Bew.Name",
          "shortcut": "Splittermond.Abilities.Bew.Shortcut",
          "start": 1,
          "value": 1,
          "mod": 0
        },
        "int": {
          "name": "Splittermond.Abilities.Int.Name",
          "shortcut": "Splittermond.Abilities.Int.Shortcut",
          "start": 1,
          "value": 1,
          "mod": 0
        },
        "kon": {
          "name": "Splittermond.Abilities.Kon.Name",
          "shortcut": "Splittermond.Abilities.Kon.Shortcut",
          "start": 1,
          "value": 1,
          "mod": 0
        },
        "mys": {
          "name": "Splittermond.Abilities.Mys.Name",
          "shortcut": "Splittermond.Abilities.Mys.Shortcut",
          "start": 1,
          "value": 1,
          "mod": 0
        },
        "stae": {
          "name": "Splittermond.Abilities.Stä.Name",
          "shortcut": "Splittermond.Abilities.Stä.Shortcut",
          "start": 1,
          "value": 1,
          "mod": 0
        },
        "ver": {
          "name": "Splittermond.Abilities.Ver.Name",
          "shortcut": "Splittermond.Abilities.Ver.Shortcut",
          "start": 1,
          "value": 1,
          "mod": 0
        },
        "wil": {
          "name": "Splittermond.Abilities.Wil.Name",
          "shortcut": "Splittermond.Abilities.Wil.Shortcut",
          "start": 1,
          "value": 1,
          "mod": 0
        }
      },
      "skills": {
        "acrobatic": {
          "name": "Splittermond.Skills.Acrobatic.Name",
          "value": 0,
          "mod": 0
        },
        "alchemie": {
          "name": "Splittermond.Skills.Alchemie.Name",
          "value": 0,
          "mod": 0
        },
        "leadership": {
          "name": "Splittermond.Skills.Leadership.Name",
          "value": 0,
          "mod": 0
        },
        "arcanearts": {
          "name": "Splittermond.Skills.ArcaneArts.Name",
          "value": 0,
          "mod": 0
        },
        "athletik": {
          "name": "Splittermond.Skills.Athletik.Name",
          "value": 0,
          "mod": 0
        },
        "performance": {
          "name": "Splittermond.Skills.Performance.Name",
          "value": 0,
          "mod": 0
        },
        "detailedcrafting": {
          "name": "Splittermond.Skills.DetailedCrafting.Name",
          "value": 0,
          "mod": 0
        },
        "empathy": {
          "name": "Splittermond.Skills.Empathy.Name",
          "value": 0,
          "mod": 0
        },
        "determination": {
          "name": "Splittermond.Skills.Determination.Name",
          "value": 0,
          "mod": 0
        },
        "dexterity": {
          "name": "Splittermond.Skills.Dexterity.Name",
          "value": 0,
          "mod": 0
        },
        "loreandmyths": {
          "name": "Splittermond.Skills.LoreAndMyths.Name",
          "value": 0,
          "mod": 0
        },
        "crafting": {
          "name": "Splittermond.Skills.Crafting.Name",
          "value": 0,
          "mod": 0
        },
        "firstaid": {
          "name": "Splittermond.Skills.FirstAid.Name",
          "value": 0,
          "mod": 0
        },
        "stealth": {
          "name": "Splittermond.Skills.Stealth.Name",
          "value": 0,
          "mod": 0
        },
        "hunting": {
          "name": "Splittermond.Skills.Hunting.Name",
          "value": 0,
          "mod": 0
        },
        "geography": {
          "name": "Splittermond.Skills.Geography.Name",
          "value": 0,
          "mod": 0
        },
        "nature": {
          "name": "Splittermond.Skills.Nature.Name",
          "value": 0,
          "mod": 0
        },
        "speech": {
          "name": "Splittermond.Skills.Speech.Name",
          "value": 0,
          "mod": 0
        },
        "locksandtraps": {
          "name": "Splittermond.Skills.LocksAndTraps.Name",
          "value": 0,
          "mod": 0
        },
        "swimming": {
          "name": "Splittermond.Skills.Swimming.Name",
          "value": 0,
          "mod": 0
        },
        "sailing": {
          "name": "Splittermond.Skills.Sailing.Name",
          "value": 0,
          "mod": 0
        },
        "onthestreets": {
          "name": "Splittermond.Skills.OnTheStreets.Name",
          "value": 0,
          "mod": 0
        },
        "animalcare": {
          "name": "Splittermond.Skills.AnimalCare.Name",
          "value": 0,
          "mod": 0
        },
        "surival": {
          "name": "Splittermond.Skills.Survival.Name",
          "value": 0,
          "mod": 0
        },
        "perception": {
          "name": "Splittermond.Skills.Perception.Name",
          "value": 0,
          "mod": 0
        },
        "toughness": {
          "name": "Splittermond.Skills.Toughness.Name",
          "value": 0,
          "mod": 0
        }
      }
    }
  },
  "Item": {
    "types": [
      "item",
      "resource",
      "strength",
      "weakness",
      "language",
      "culture"
    ],
    "templates": {
      "base": {
        "description": ""
      }
    },
    "item": {
      "templates": [
        "base"
      ],
      "quantity": 1,
      "weight": 0
    },
    "resource": {
      "templates": [
        "base"
      ],
      "quantity": 1,
      "weight": 0
    }
  }
}